{
  "AWSTemplateFormatVersion": "2010-09-09",
  "Description": "The AWS CloudFormation template for this Serverless application",
  "Resources": {
    "ServerlessDeploymentBucket": {
      "Type": "AWS::S3::Bucket",
      "Properties": {
        "BucketEncryption": {
          "ServerSideEncryptionConfiguration": [
            {
              "ServerSideEncryptionByDefault": {
                "SSEAlgorithm": "AES256"
              }
            }
          ]
        }
      }
    },
    "ServerlessDeploymentBucketPolicy": {
      "Type": "AWS::S3::BucketPolicy",
      "Properties": {
        "Bucket": {
          "Ref": "ServerlessDeploymentBucket"
        },
        "PolicyDocument": {
          "Statement": [
            {
              "Action": "s3:*",
              "Effect": "Deny",
              "Principal": "*",
              "Resource": [
                {
                  "Fn::Join": [
                    "",
                    [
                      "arn:",
                      {
                        "Ref": "AWS::Partition"
                      },
                      ":s3:::",
                      {
                        "Ref": "ServerlessDeploymentBucket"
                      },
                      "/*"
                    ]
                  ]
                },
                {
                  "Fn::Join": [
                    "",
                    [
                      "arn:",
                      {
                        "Ref": "AWS::Partition"
                      },
                      ":s3:::",
                      {
                        "Ref": "ServerlessDeploymentBucket"
                      }
                    ]
                  ]
                }
              ],
              "Condition": {
                "Bool": {
                  "aws:SecureTransport": false
                }
              }
            }
          ]
        }
      }
    },
    "PythonRequirementsLambdaLayer": {
      "Type": "AWS::Lambda::LayerVersion",
      "Properties": {
        "Content": {
          "S3Bucket": {
            "Ref": "ServerlessDeploymentBucket"
          },
          "S3Key": "serverless/layer-interact/dev/1632161903829-2021-09-20T18:18:23.829Z/pythonRequirements.zip"
        },
        "LayerName": "python-interact",
        "Description": "Layer which contains plotly library",
        "CompatibleRuntimes": [
          "python3.8"
        ]
      }
    }
  },
  "Outputs": {
    "ServerlessDeploymentBucketName": {
      "Value": {
        "Ref": "ServerlessDeploymentBucket"
      },
      "Export": {
        "Name": "sls-layer-interact-dev-ServerlessDeploymentBucketName"
      }
    },
    "PythonRequirementsLambdaLayerQualifiedArn": {
      "Description": "Current Lambda layer version",
      "Value": {
        "Ref": "PythonRequirementsLambdaLayer"
      },
      "Export": {
        "Name": "sls-layer-interact-dev-PythonRequirementsLambdaLayerQualifiedArn"
      }
    },
    "PythonRequirementsLambdaLayerHash": {
      "Description": "Current Lambda layer hash",
      "Value": "6205d28c7f0c19a8f74dcc20d8a917942da0085f",
      "Export": {
        "Name": "sls-layer-interact-dev-PythonRequirementsLambdaLayerHash"
      }
    },
    "PythonRequirementsLambdaLayerS3Key": {
      "Description": "Current Lambda layer S3Key",
      "Value": "serverless/layer-interact/dev/1632161903829-2021-09-20T18:18:23.829Z/pythonRequirements.zip",
      "Export": {
        "Name": "sls-layer-interact-dev-PythonRequirementsLambdaLayerS3Key"
      }
    }
  }
}