{
  "service": {
    "service": "layer-interact",
    "serviceObject": {
      "name": "layer-interact"
    },
    "provider": {
      "name": "aws",
      "runtime": "python3.8",
      "lambdaHashingVersion": "20201221",
      "stage": "dev",
      "region": "us-east-1",
      "versionFunctions": true,
      "compiledCloudFormationTemplate": {
        "AWSTemplateFormatVersion": "2010-09-09",
        "Description": "The AWS CloudFormation template for this Serverless application",
        "Resources": {
          "ServerlessDeploymentBucket": {
            "Type": "AWS::S3::Bucket",
            "Properties": {
              "BucketEncryption": {
                "ServerSideEncryptionConfiguration": [
                  {
                    "ServerSideEncryptionByDefault": {
                      "SSEAlgorithm": "AES256"
                    }
                  }
                ]
              }
            }
          },
          "ServerlessDeploymentBucketPolicy": {
            "Type": "AWS::S3::BucketPolicy",
            "Properties": {
              "Bucket": {
                "Ref": "ServerlessDeploymentBucket"
              },
              "PolicyDocument": {
                "Statement": [
                  {
                    "Action": "s3:*",
                    "Effect": "Deny",
                    "Principal": "*",
                    "Resource": [
                      {
                        "Fn::Join": [
                          "",
                          [
                            "arn:",
                            {
                              "Ref": "AWS::Partition"
                            },
                            ":s3:::",
                            {
                              "Ref": "ServerlessDeploymentBucket"
                            },
                            "/*"
                          ]
                        ]
                      },
                      {
                        "Fn::Join": [
                          "",
                          [
                            "arn:",
                            {
                              "Ref": "AWS::Partition"
                            },
                            ":s3:::",
                            {
                              "Ref": "ServerlessDeploymentBucket"
                            }
                          ]
                        ]
                      }
                    ],
                    "Condition": {
                      "Bool": {
                        "aws:SecureTransport": false
                      }
                    }
                  }
                ]
              }
            }
          },
          "PythonRequirementsLambdaLayer": {
            "Type": "AWS::Lambda::LayerVersion",
            "Properties": {
              "Content": {
                "S3Bucket": {
                  "Ref": "ServerlessDeploymentBucket"
                },
                "S3Key": "serverless/layer-interact/dev/1632161903829-2021-09-20T18:18:23.829Z/pythonRequirements.zip"
              },
              "LayerName": "python-interact",
              "Description": "Layer which contains plotly library",
              "CompatibleRuntimes": [
                "python3.8"
              ]
            }
          }
        },
        "Outputs": {
          "ServerlessDeploymentBucketName": {
            "Value": {
              "Ref": "ServerlessDeploymentBucket"
            },
            "Export": {
              "Name": "sls-layer-interact-dev-ServerlessDeploymentBucketName"
            }
          },
          "PythonRequirementsLambdaLayerQualifiedArn": {
            "Description": "Current Lambda layer version",
            "Value": {
              "Ref": "PythonRequirementsLambdaLayer"
            },
            "Export": {
              "Name": "sls-layer-interact-dev-PythonRequirementsLambdaLayerQualifiedArn"
            }
          },
          "PythonRequirementsLambdaLayerHash": {
            "Description": "Current Lambda layer hash",
            "Value": "6205d28c7f0c19a8f74dcc20d8a917942da0085f",
            "Export": {
              "Name": "sls-layer-interact-dev-PythonRequirementsLambdaLayerHash"
            }
          },
          "PythonRequirementsLambdaLayerS3Key": {
            "Description": "Current Lambda layer S3Key",
            "Value": "serverless/layer-interact/dev/1632161903829-2021-09-20T18:18:23.829Z/pythonRequirements.zip",
            "Export": {
              "Name": "sls-layer-interact-dev-PythonRequirementsLambdaLayerS3Key"
            }
          }
        }
      },
      "coreCloudFormationTemplate": {
        "AWSTemplateFormatVersion": "2010-09-09",
        "Description": "The AWS CloudFormation template for this Serverless application",
        "Resources": {
          "ServerlessDeploymentBucket": {
            "Type": "AWS::S3::Bucket",
            "Properties": {
              "BucketEncryption": {
                "ServerSideEncryptionConfiguration": [
                  {
                    "ServerSideEncryptionByDefault": {
                      "SSEAlgorithm": "AES256"
                    }
                  }
                ]
              }
            }
          },
          "ServerlessDeploymentBucketPolicy": {
            "Type": "AWS::S3::BucketPolicy",
            "Properties": {
              "Bucket": {
                "Ref": "ServerlessDeploymentBucket"
              },
              "PolicyDocument": {
                "Statement": [
                  {
                    "Action": "s3:*",
                    "Effect": "Deny",
                    "Principal": "*",
                    "Resource": [
                      {
                        "Fn::Join": [
                          "",
                          [
                            "arn:",
                            {
                              "Ref": "AWS::Partition"
                            },
                            ":s3:::",
                            {
                              "Ref": "ServerlessDeploymentBucket"
                            },
                            "/*"
                          ]
                        ]
                      },
                      {
                        "Fn::Join": [
                          "",
                          [
                            "arn:",
                            {
                              "Ref": "AWS::Partition"
                            },
                            ":s3:::",
                            {
                              "Ref": "ServerlessDeploymentBucket"
                            }
                          ]
                        ]
                      }
                    ],
                    "Condition": {
                      "Bool": {
                        "aws:SecureTransport": false
                      }
                    }
                  }
                ]
              }
            }
          }
        },
        "Outputs": {
          "ServerlessDeploymentBucketName": {
            "Value": {
              "Ref": "ServerlessDeploymentBucket"
            }
          }
        }
      }
    },
    "custom": {
      "pythonRequirements": {
        "dockerizePip": true,
        "layer": {
          "name": "python-interact",
          "description": "Layer which contains plotly library",
          "compatibleRuntimes": {
            "$ref": "$[\"service\"][\"provider\"][\"compiledCloudFormationTemplate\"][\"Resources\"][\"PythonRequirementsLambdaLayer\"][\"Properties\"][\"CompatibleRuntimes\"]"
          }
        }
      }
    },
    "plugins": [
      "serverless-python-requirements"
    ],
    "pluginsData": {},
    "functions": {},
    "configValidationMode": "warn",
    "serviceFilename": "serverless.yml",
    "initialServerlessConfig": {
      "service": {
        "$ref": "$[\"service\"][\"serviceObject\"]"
      },
      "frameworkVersion": "2",
      "provider": {
        "$ref": "$[\"service\"][\"provider\"]"
      },
      "plugins": {
        "$ref": "$[\"service\"][\"plugins\"]"
      },
      "custom": {
        "$ref": "$[\"service\"][\"custom\"]"
      }
    },
    "layers": {
      "pythonRequirements": {
        "artifact": ".serverless/pythonRequirements.zip",
        "name": "python-interact",
        "description": "Layer which contains plotly library",
        "compatibleRuntimes": {
          "$ref": "$[\"service\"][\"provider\"][\"compiledCloudFormationTemplate\"][\"Resources\"][\"PythonRequirementsLambdaLayer\"][\"Properties\"][\"CompatibleRuntimes\"]"
        },
        "package": {}
      }
    },
    "isDashboardMonitoringPreconfigured": false
  },
  "package": {
    "artifactDirectoryName": "serverless/layer-interact/dev/1632161903829-2021-09-20T18:18:23.829Z",
    "artifact": ""
  }
}